Fréquence	 Dioula	 Gr.	 Français	 Usage
1	 à	 pr. 3è s.	 il, elle	 Awa be min ? a be bon kɔnɔ.
2	 bé	 cop.	 être	 a be Buake.
3	 í	 pr. 2è s.	 tu, ton	 i be i tɛgɛ ko ka sɔrɔ ka domuni kɛ.
4	 n	 pr. 1è s.	 je, ma, mon	 ne ma n bamuso ye.
5	 kà	 connectif verbale	 et	 a furura dugu la ka taga Bijan.
6	 lá	 postp	 à, dans, en, de	 n be taga lɔgɔfiyɛ la.
7	 ù	 3è pl	 ils eux	 
8	 tɛ́	 cop. mq. asp. nég.	 (négation)	 tiɲɛn tɛ.
9	 kò	 v.	 laver	 a be fani ko.
10	 án	 pr. 1è pl.	 nous, notre	 an facɛ lo.
12	 ò	 pr. 3è pl.	 ils, elles, leur	 o be baranda susu.
13	 ní	 conj.	 quand	 ni n segira so kɔnɔ, n be n ya zurunali kalan.
13	 ní	 conj.	 si	 n'ala sɔnna, an bɛna taga.
14	 tága	 	 aller	 n be taga la
16	 yé	 postp.	 à, pour	 n'i taara o fɛ, o be diya o ye.
17	 má	 mq. asp. nég.	 mq. nég.	 n ma wari sɔrɔ fɔlɔ.
18	 nín	 d. s.	 celui-la, celui-ci, celle-ci, ceci	 cɛ nin tɔgɔ ye Ali
19	 yé	 cop.	 être	 Musa ye Madu dencɛ ye.
20	 nà	 v.	 venir	 a tɛna nan.
21	 kà	 mq. asp. copule	 mq. asp.	 a ka sisɛ domu.
22	 yèn	 	 la, la bas	 a tagala yen.
23	 mín	 mq rel	 qui, que, ce que (relatif)	 a ka wari di cɛ min ma, a ka jugu dɛ !
24	 fó	 	 dire	 a fɔra ko…
25	 ní	 conj.	 et	 a ni a terimuso ka ɲɔgɔn bɛn Bijan.
26	 ɔ̀nhɔ́n	 	 oui	 a nana wa ? ɔnhɔn, a nana.
27	 mɔ̀gɔ	 	 une personne, des gens	 mɔgɔ be mɔgɔ kɛ mɔgɔ ye.
28	 ká	 mq. adj.	 être	 a ka jan.
29	 wà	 interrogatif	 est-ce que	 a ka min fɔ, i m'a mɛn wa ?
30	 sé	 v	 arriver	 i dan se.
33	 kélen	 	 un	 a ka mobili kelen san.
34	 lò	 pe	 c'est	 n ta lo.
35	 tùn	 mq. inact.	 était	 an tun sɛgɛlen be kojugu.
36	 bɔ̀	 vi	 sortir	 Ali bɔtɔ bɛn na ni Musa ye.
37	 áa	 	 ah !	 
38	 lɔ́n	 v	 connaître	 n m'a lɔn.
39	 sɔ̀rɔ	 vt	 trouver	 nugu tɛ sɔrɔ lɔgɔfiyɛ la.
40	 ó	 conn. distrib	 	 i kana sunɔgɔ yɔrɔ o yɔrɔ la.
41	 yàn	 	 ici	 o tɛ yan.
42	 mà	 postp.	 postp.	 a tɛ nin di mɔgɔ ma.
43	 wári	 	 argent	 n mako tɛ wari la sisan.
43	 yɛ̀rɛ	 	 même	 mɔgɔ tɛ yɛrɛ ye.
45	 bɛ́ɛ	 	 tous, tout	 musow bɛɛ sigila
46	 mɛ	 	 mais	 
47	 fɛ̀	 postp.	 vouloir	 i be mun fɛ ?
48	 kɔ́nɔ	 postp.	 dans	 a k'a bla manan kɔnɔ
49	 yɔ́rɔ	 	 endroit	 a taara yɔrɔ jan.
50	 báara	 n	 travail	 n muso ka baara sɔrɔ.
51	 dɛ	 part. phr.	 part. phr. dɛ	 kana a kɛ dɛ !
51	 fána	 	 aussi	 ale fana ka mobili san.
51	 yé	 v	 voir	 i ka a ya mobili ye wa ?
54	 á	 pr. 2è pl.	 vous, votre	 á bamuso nana.
54	 sisan	 	 maintenant, à l'instant	 sisan an ka kan ka baara kɛ !
56	 Ala	 	 Dieu	 Ala ye kelen pe ye.
56	 dí	 vt.	 donner	 a ka fani di Awa ma.
56	 tà	 	 prendre, emporter	 a ka min ta, n ta le.
59	 tèn	 	 ainsi, comme ça	 a ka ɲi ten!
60	 sàn	 v.	 acheter	 n ka malo san.
61	 kɔ̀ni	 	 quant à…, en ce qui concern…, en tous cas…	 Adamaden kɔni tɛ foyi ye.
62	 kɛ̀	 pa.	 bien sûr	 ku ka di i ye wa ? ku ka di n ye kɛ.
62	 tó	 	 rester	 a to ye ka baranda.
65	 fèn	 	 chose	 a ma sɔn ka fɛɛn fɔ.
66	 kɛ̀mɛ	 	 cent	 
68	 mùn	 	 quoi ?	 mun ko be yen?
70	 ɲi	 	 bien, bon	 a flɛ, a ka ɲi wa ? Ɔn ɔn, a ma ɲi.
71	 mɛ́n	 	 entendre	 i m'a kasikan mɛn wa ?
72	 fɔɔ	 	 jusqu'à	 a tagamala fɔɔ Abobo.
74	 kósɔn	 	 à cause de, grâce à	 a ma se ka na a dencɛ ta furuko kosɔn.
74	 sà	 	 mourir	 a facɛ sara salon.
74 	 tùma	 	 moment	 o tuma na, i bɛ i ya sokɔnɔbaaraw kɛ cogo di?
77	 àyiwa	 	 eh bien, euh, bon	 ayiwa, baga ni kafe tɛ kelen ye.
78	 dén	 	 enfant	 denmuso
78	 dɔ̀n	 part.	 et…	 i bamuso dɔn ?
78	 kósɔbɛ	 	 très, trop	 a ka ɲi kosɔbe!
82	 mùso	 n	 femme	 muso nin cɛ ka ɲi.
83	 àle	 pr. 3è s. emph.	 elle, elle…; lui, il…	 ne tɛ, ale le ka bon nɔgɔ.
84	 dùgu	 	 ville, village	 i bɔ la dugu juman ?
84	 fèere	 v	 vendre	 a ka saga feere Musa ma.
85	 cógo	 	 manière	 a ya kuma cogo ka ɲi.
86	 ɲúman	 	 bon	 buru ɲuman tɛ yen wa ?
87	 jula	 	 dioula	 Jula le b'i ye wa ? / i be Jula ye wa ?
87	 lón	 	 jour	 loon o loon sanji be na.
87	 ɲíni	 	 chercher	 a ka baara ɲini nka a ma foyi sɔrɔ.
92	 cɛ̀	 	 homme, mâle	 a kɛra cɛ ye sisan.
92	 kɔ́mi	 	 comme	 a be kɔmi a man kɛnɛ.
94	 bán	 v	 terminer, finir	 baara banna
94	 bólo	 n	 main, bras	 kinibolo / bolo ɲuman
94	 dɔ́ɔnin	 	 un peu	 dɔɔni be a kɔrɔ.
94	 tùbabu	 	 européen	 tubabucɛ, tubabumuso
98	 gwɛ̀lɛ	 	 difficile	 julakan man gwɛlɛ.
98	 tán	 	 dix	 a den tanan lo.
98	 wúli	 	 bouillir	 a ma ji wili fɔlɔ.
