Dyula	English	 
bagaman	termite	 
bàla	porcupine	 
bamba	crocodile	 
bása	gecko lizard	 
citumu	caterpillar	 
dabi	flee	 
dagbɛ	hypotraga (antilope)	 
dondoli	wasp	 
dòndon	coq	 
dugumɛnɛ	ant	 
dugumɛnɛ siman	flying ant	 
fàli	donkey	 
firinfirin	butterfly	 
gangan	crab	 
jàra		 
jàra	lion	 
jɛ́gɛ	fish	 
kaankaan	crow	 
kàmi	guinea fowl	 
kongo baa	mountain goat	 
kongo sogow	wild animals	 
kongo wulu	wolf	 
koɲena	agouti	 
kɔ̀kɔti	pig pig	 
kɔnɔn dakalajan	humming bird	 
kɔ̀nɔnin	bird	 
liden	bee	 
límɔgɔ	fly	 
màngalanin	doe	 
meeri	hippopotamus	 
mininyan ba	large python	 
mìsi	cow	 
misiden	calf	 
misi tora	bull	 
ntàlen	spider	 
ɲɛmbɛrɛ	cockroach	 
ɲìnan	mouse	 
ɲɔ̀gɔmɛ	camel	 
saa	snake	 
sagaden	lamb	 
sagajigi	ram	 
sàga	sheep	 
sàma	elephant	 
segɛn	eagle	 
selandri	salamander	 
sìsɛ	chicken	 
sò	horse	 
sòso	mosquito	 
sozani	rabbit	 
sɔ	antilope	 
sùla	monkey	 
súruku	hyena	 
tonso	bat	 
tòto	rat	 
tɔɔn	cricket / grasshopper	 
tɔri sen jan	frog	 
tɔri	toad	 
tumu	worm	 
vɔvɔni	green mamba	 
waraninkalan	panther	 
wára	wild cat	 
warawulen	chimpanze	 
wata juba	mongoose	 
wuluden	puppy	 
wùlu	dog	 
