Jatiden,,Wari,
 1,kelen,drɔme kelen, 5CFA
 2,fila,drɔme fila, 10CFA
 3,saba,dɔrɔmɛ saba, 15CFA
 4,naani,drɔme naani, 20CFA
 5,looru,drɔme looru, 25CFA
 6,wɔɔrɔ,drɔme wɔɔrɔ, 30CFA
 7,wolonfila,drɔme wolonfila, 35CFA
 8,seegi,drɔme seegi, 40CFA
 9,kɔnɔtɔ,drɔme drɔme naani, 45CFA
 10,tan,drɔme tan, 50CFA
 11,tan ni kelen,drɔme tan ni kelen, 55CFA
 12,tan ni fila,drɔme tan ni fila, 60CFA
 13,tan ni saba,drɔme tan ni saba, 65CFA
 14,tan ni naani,drɔme tan ni naani, 70CFA
 15,tan ni looru,drɔme tan ni looru, 75CFA
 16,tan ni wɔɔrɔ,drɔme tan ni wɔɔrɔ, 80CFA
 17,tan ni wolonfila,drɔme tan ni wolonfila, 85CFA
 18,tan ni seegi,drɔme tan ni seegi, 90CFA
 19,tan ni kɔnɔtɔ,drɔme tan ni kɔnɔtɔ, 95CFA
 20,mugan,drɔme mugan, 100CFA
 21,mugan ni kelen,drɔme mugan ni kelen, 105CFA
 22,mugan ni fila,drɔme mugan ni fila, 110CFA
 23,mugan ni saba,drɔme mugan ni saba, 115CFA
 24,mugan ni naani,drɔme mugan ni naani, 120CFA
 25,mugan ni looru,drɔme mugan ni looru, 125CFA
 26,mugan ni wɔɔrɔ,drɔme mugan ni wɔɔrɔ, 130CFA
 27,mugan ni wolonfila,drɔme mugan ni wolonfila, 135CFA
 28,mugan ni seegi,drɔme mugan ni seegi, 140CFA
 29,mugan ni kɔnɔtɔ,drɔme mugan ni kɔnɔtɔ, 145CFA
 30,bi saba,drɔme bi saba, 150CFA
 31,bi saba ni kelen,drɔme bi saba ni kelen, 155CFA
 32,bi saba ni fila,drɔme bi saba ni fila, 160CFA
 33,bi saba ni saba,drɔme bi saba ni saba, 165CFA
 34,bi saba ni naani,drɔme bi saba ni naani, 170CFA
 35,bi saba ni looru,drɔme bi saba ni looru, 175CFA
 36,bi saba ni wɔɔrɔ,drɔme bi saba ni wɔɔrɔ, 180CFA
 37,bi saba  ni wolonfila,drɔme bi saba  ni wolonfila, 185CFA
 38,bi saba ni seegi,drɔme bi saba ni seegi, 190CFA
 39,bi saba ni kɔnɔtɔ,drɔme bi saba ni kɔnɔtɔ, 195CFA
 40,bi naani,drɔme bi naani, 200CFA
 41,bi naani ni kelen,drɔme bi naani ni kelen, 205CFA
 42,bi naani ni fila,drɔme bi naani ni fila, 210CFA
 43,bi naani ni saba,drɔme bi naani ni saba, 215CFA
 44,bi naani ni naani,drɔme bi naani ni naani, 220CFA
 45,bi naani ni looru,drɔme bi naani ni looru, 225CFA
 46,bi naani ni wɔɔrɔ,drɔme bi naani ni wɔɔrɔ, 230CFA
 47,bi naani ni wolonfila,drɔme bi naani ni wolonfila, 235CFA
 48,bi naani ni seegi,drɔme bi naani ni seegi, 240CFA
 49,bi naani ni  kɔnɔtɔ,drɔme bi naani ni  kɔnɔtɔ, 245CFA
 50,bi looru,drɔme bi looru, 250CFA
 55,bi looru ni looru,drɔme bi looru ni looru, 275CFA
 60,bi wɔɔrɔ,drɔme bi wɔɔrɔ, 300CFA
 65,bi wɔɔrɔ ni looru,drɔme bi wɔɔrɔ ni looru, 325CFA
 66,bi wɔɔrɔ ni wɔɔrɔ,drɔme bi wɔɔrɔ ni wɔɔrɔ, 330CFA
 70,bi wolonvila,drɔme bi wolonvila, 350CFA
 75,bi wolonvila ni looru,drɔme bi wolonvila ni looru, 375CFA
 80,bi seegi,drɔme bi seegi, 400CFA
 85,bi seegi ni looru,drɔme bi seegi ni looru, 425CFA
 90,bi kɔnɔtɔ,drɔme bi kɔnɔtɔ, 450CFA
 95,bi kɔnɔtɔ ni looru,drɔme bi kɔnɔtɔ ni looru, 475CFA
 100,kɛmɛ,drɔme kɛmɛ, 500CFA
 120,kɛmɛ ni mugan,drɔme kɛmɛ ni mugan, 600CFA
 140,kɛmɛ ni bi naani,drɔme kɛmɛ ni bi naani, 700CFA
 160,kɛmɛ ni bi wɔɔrɔ,drɔme kɛmɛ ni bi wɔɔrɔ, 800CFA
 180,kɛmɛ ni bi seegi,drɔme kɛmɛ ni bi seegi, 900CFA
 200,kɛmɛ fila,drɔme kɛmɛ fila,1 000CFA
 246,kɛmɛ fila ni bi naani ni wɔɔrɔ,#drɔme kɛmɛ fila ni bi naani ni wɔɔrɔ#,1 230CFA
 300,kɛmɛ saba,drɔme kɛmɛ saba,1 500CFA
 320,kɛmɛ saba ni mougan,drɔme kɛmɛ saba ni mougan,1 600CFA
 400,kɛmɛ naani,drɔme kɛmɛ naani,2 000CFA
 500,kɛmɛ looru,drɔme kɛmɛ looru,2 500CFA
 600,kɛmɛ wɔɔrɔ,drɔme kɛmɛ wɔɔrɔ,3 000CFA
 700,kɛmɛ wolonfila,drɔme kɛmɛ wolonfila,3 500CFA
 800,kɛmɛ seegi,drɔme kɛmɛ seegi,4 000CFA
 900,kɛmɛ kɔnɔtɔ,drɔme kɛmɛ kɔnɔtɔ,4 500CFA
1 000,waga kelen,drɔme waga kelen,5 000CFA
1 200,waga kelen ni kɛmɛ fila,drɔme waga kelen ni kɛmɛ fila,6 000CFA
2 000,waga fila,drɔme waga fila,10 000CFA
3 000,waga saba,drɔme waga saba,15 000CFA
3 246,waga saba ani kɛmɛ fila ni bi naani ni wɔɔrɔ,#drɔme waga saba ni kɛmɛ fila ani bi naani ni wɔɔrɔ#,16 230CFA
4 000,waga naani,drɔme waga naani,20 000CFA
6 000,waga wɔɔrɔ,drɔme waga wɔɔrɔ,30 000CFA
8 000,waga seegi,drɔme waga seegi,40 000CFA
10 000,waga tan,drɔme waga tan,50 000CFA
12 000,waga tan ni fila,drɔme waga tan ni fila,60 000CFA
14 000,waga tan ni naani,drɔme waga tan ni naani,70 000CFA
16 000,waga tan ni wɔɔrɔ,drɔme waga tan ni wɔɔrɔ,80 000CFA
18 000,waga tan ni seegi ,drɔme waga tan ni seegi ,90 000CFA
20 000,waga mugan,drɔme waga mugan,100 000CFA
30 000,waga bi saba,drɔme waga bi saba,150 000CFA
40 000,waga bi naani,drɔme waga bi naani,200 000CFA
50 000,waga bi looru,drɔme waga bi looru,250 000CFA
53 246,waga bi looru ni saba ani kɛmɛ fila ni bi naani ni wɔɔrɔ,##drɔme waga bi looru ni saba ni kɛmɛ fila ani bi naani ni wɔɔrɔ##,266 230CFA
60 000,waga bi wɔɔrɔ,drɔme waga bi wɔɔrɔ,300 000CFA
70 000,waga bi wolonfila,drɔme waga bi wolonfila,350 000CFA
80 000,waga bi seegi,drɔme waga bi seegi,400 000CFA
90 000,waga bi kɔnɔtɔ,drɔme waga bi kɔnɔtɔ,450 000CFA
100 000,waga kɛmɛ,drɔme waga kɛmɛ,500 000CFA
