Julakan,Tubabukan
bagaman,termite
bàla,porc épic
bamba,crocodile
bása,margouillat
citumu,chenille
dabi,punaise
dagbɛ,hypotrague
dondoli,guêpe
dòndon,coq
dugumɛnɛ,fourmi
dugumɛnɛ siman,fourmi ailée
fàli,âne
firinfirin,papillon
gangan,crabe
jàra,lion
jàra,lionceau
jɛ́gɛ,poisson
kaankaan,corbeau
kàmi,pintade
kongo baa,chèvre de montagne
kongo sogow,animaux sauvages
kongo wulu,loup
koɲena,agouti
kɔ̀kɔti,porc, cochon
kɔnɔn dakalajan,colibri
kɔ̀nɔnin,oiseau
liden,abeille
límɔgɔ,mouche
màngalanin,biche
meeri,hippopotame
mininyan ba,grand python
mìsi,bovin
misiden,veau
misi tora,boeuf
ntàlen,conte, proverbe, araignée
ɲɛmbɛrɛ,caffard
ɲìnan,souris
ɲɔ̀gɔmɛ,chameau
saa,serpent
sagaden,agneau
sagajigi,bélier
sàga,mouton
sàma,éléphant
segɛn,aigle
selandri,salamandre
sìsɛ,poule, poulet
sò,cheval
sòso,moustique
sozani,lapin
sɔ,kob
sùla,singe
súruku,hyène
tonso,chauve souris
tòto,rat
tɔɔn,criquet / sauterelle
tɔri,crapeau
tɔri sen jan,grenouille
tumu,vers
vɔvɔni,manbat
wára,fauve, chat sauvage male, tigre
waraninkalan,panthère
warawulen,chimpanzé
wata juba,mangouste
wùlu,chien
wuluden,chiot
