      1 adamaden
      1 akbar
      1 aladaribari
      1 alahu
      1 arabu
      1 b’
      1 baba
      1 badenyakɛlɛ
      1 bagabaga
      1 bagabagabɔbaga
      1 bagama
      1 bagamin
      1 bagayɔgɔ
      1 baji
      1 bakasi
      1 balemafirisununkun
      1 balimaya
      1 bamusodomu
      1 banaji
      1 banbandennin
      1 banfla
      1 banogo
      1 bantɔ
      1 baraka
      1 baranin
      1 baro
      1 baroda
      1 basen
      1 batigɛ
      1 batigɛsara
      1 belencɛ
      1 bencogo
      1 bennin
      1 benyɔrɔ
      1 bɛmacɛ
      1 bɛndugu
      1 bɛnnin
      1 bɛrɛkisɛ
      1 biɲɛnkala
      1 biri
      1 biribaga
      1 bo
      1 boda
      1 borikan
      1 borira
      1 boritɔ
      1 borituma
      1 borokɔnɔ
      1 borokuru
      1 bosobaga
      1 bozo
      1 bɔgɔ
      1 bɔgɔdɛsɛ
      1 bɔna
      1 bɔnin
      1 bɔnna
      1 bɔrɔba
      1 bɔrɔkɔnɔbla
      1 bɔrɔlaman
      1 bɔrɔraman
      1 bɔrɔtɔ
      1 bɔtɔ
      1 bɔtuma
      1 bɔyɔrɔ
      1 brancɛ
      1 buguyɔrɔ
      1 bulonda
      1 bulonkɔnɔsi
      1 buran
      1 burufiyɛ
      1 burufiyɛbaga
      1 burunna
      1 canfɔbaga
      1 cankuma
      1 cɛfari
      1 cɛfariya
      1 cɛkaɲi
      1 cɛko
      1 cɛkɔrɔ
      1 cɛkɔrɔbaraman
      1 cɛnnikɛbaga
      1 cɛntakokuma
      1 cɛsirikonyuman
      1 cɛya
      1 cikan
      1 cinnin
      1 cira
      1 cun
      1 d
      1 dablakan
      1 dabɔra
      1 dagasigi
      1 daha
      1 daje
      1 daji
      1 dalamaga
      1 dalateriya
      1 damina
      1 danga
      1 danninfɛn
      1 darateriya
      1 datugu
      1 degiri
      1 degunin
      1 denminsɛnnin
      1 denmisɛnman
      1 denmisɛnso
      1 dentan
      1 deregenin
      1 deri
      1 dɛgɛminbaga
      1 dɛgɛsusukolonkalan
      1 dɛndɛn
      1 dɛsɛ
      1 digira
      1 digiri
      1 dimanyɔrɔ
      1 dingakɔnɔfɛn
      1 diyabɔ
      1 diyakojugu
      1 diyanya
      1 diyanyako
      1 diyanyamɔgɔ
      1 diyatuma
      1 dogo
      1 domubaga
      1 domufɛn
      1 domukojuguya
      1 domuni
      1 donbariya
      1 dondokɔrɔ
      1 donso
      1 donsocɛ
      1 dɔnkɛsara
      1 dɔnkiri
      1 dɔnkirilaminabaga
      1 duduntigi
      1 dugalen
      1 dugawu
      1 dugugbɛkan
      1 dugukolo
      1 dugumatereke
      1 dugumɛnɛnin
      1 dugusira
      1 dugutaga
      1 dugutaraman
      1 dugutigiya
      1 dulonyɔrɔ
      1 dundun
      1 dundunfɔyɔrɔ
      1 dunuɲalatigɛ
      1 fagaba
      1 fagabaga
      1 fagamadenbugɔ
      1 fagantanya
      1 fago
      1 fagobagatɔ
      1 faligbɛn
      1 falikan
      1 faranlon
      1 farantuma
      1 farata
      1 fari
      1 farin
      1 fasa
      1 feere
      1 fɛnbanbari
      1 fɛnɲini
      1 fɛntigi
      1 filen
      1 filenkan
      1 fincogo
      1 finman
      1 finna
      1 firikojugu
      1 fitinan
      1 fitinin
      1 fitiri
      1 fitirimawaliya
      1 fiyeerera
      1 fiyen
      1 fiyereta
      1 fiyɛ
      1 fiyɛbaga
      1 flaburu
      1 flamuso
      1 flan
      1 flɛri
      1 fofo
      1 fofori
      1 folo
      1 foni
      1 foro
      1 forokonin
      1 foroto
      1 forotobɔrɔ
      1 forotomugu
      1 fɔda
      1 fɔkonyuman
      1 fɔnɲɔba
      1 fɔri
      1 fugula
      1 furura
      1 galama
      1 gbabugu
      1 gbala
      1 gbanana
      1 gbaniman
      1 gbanlon
      1 gbara
      1 gbasi
      1 gbata
      1 gberen
      1 gbɛlɛ
      1 gbɛlɛn
      1 gbɛman
      1 gbɛɲɛ
      1 gbɛrɛgbɛrɛko
      1 gbɛsɛ
      1 gbiriman
      1 gbɔncɛkɔrɔba
      1 girindi
      1 girinna
      1 girinwagati
      1 gundojugu
      1 hakirisigi
      1 hakiritigi
      1 hɔn
      1 jaba
      1 jagofɛn
      1 jakuma
      1 jama
      1 jamanaden
      1 jamu
      1 janko
      1 jannin
      1 janto
      1 janya
      1 jara
      1 jatigibugɔ
      1 jatigicɛ
      1 jatigiɲininka
      1 jatigiya
      1 jebagatɔ
      1 jeliya
      1 jende
      1 jendekala
      1 jɛgɛdenin
      1 jɛgɛjalan
      1 jɛngɛ
      1 jɛnin
      1 jɛnna
      1 jidaga
      1 jifiyɛ
      1 jigbanin
      1 jigijigi
      1 jigimafara
      1 jiginta
      1 jiminbari
      1 jori
      1 jɔn
      1 jɔncɛnin
      1 jufa
      1 juguman
      1 jura
      1 jurufiyɛ
      1 jurukisɛ
      1 jurunantigi
      1 jusu
      1 jusuba
      1 kabakariyɔrɔ
      1 kaburu
      1 kaganan
      1 kami
      1 kanaderege
      1 kanbele
      1 kanbeleba
      1 kanna
      1 kannakɔnɔn
      1 kanuya
      1 kaɲa
      1 karaba
      1 karabara
      1 karafe
      1 karatabugu
      1 karibaga
      1 kariri
      1 karojate
      1 kasiko
      1 kasira
      1 kasitɔ
      1 kelennamiiri
      1 kɛlɛtigɛbaga
      1 kɛlɛtigɛkan
      1 kɛnɛsigiblan
      1 kɛnɛsigiri
      1 k’i
      1 kinbiri
      1 kinbirikun
      1 kinyɔrɔ
      1 kirikirisiyɛn
      1 kirisi
      1 kirisitigi
      1 kisɛ
      1 kiti
      1 kobakɛ
      1 kofitininkɛ
      1 kogbɛlɛnkɛ
      1 kogo
      1 kogokɔfɛkuma
      1 koji
      1 kojugukɛbaga
      1 kolo
      1 kolɔn
      1 kolɔnbaga
      1 kongosɔgɔ
      1 kononin
      1 konyuman
      1 koɲinibaga
      1 kora
      1 koro
      1 kotigiya
      1 koyokoyonin
      1 kɔda
      1 kɔdimitɔ
      1 kɔflɛbariya
      1 kɔkuru
      1 kɔlɔnda
      1 kɔlɔnkɔnɔ
      1 kɔlɔnkɔnɔboci
      1 kɔlɔnkɔnɔtɔri
      1 kɔlɔnnin
      1 kɔnɔbara
      1 kɔnɔbori
      1 kɔnɔboritɔ
      1 kɔnɔdimi
      1 kɔnɔna
      1 kɔnɔnɔfɛn
      1 kɔnɔnɔkirisi
      1 kɔnɔsogolon
      1 kɔɲɔmuso
      1 kɔrɔbɔ
      1 kɔrɔko
      1 kɔrɔra
      1 kɔrɔsi
      1 kɔrɔsiyɛn
      1 kɔrɔtanin
      1 kɔrɔtɔ
      1 kɔrɔtɔnin
      1 kɔrɔya
      1 kɔsin
      1 kɔwɛrɛ
      1 ku
      1 kumabari
      1 kumabariya
      1 kumakɔrɔ
      1 kumandan
      1 kuna
      1 kunbiri
      1 kunnadiya
      1 kunnaminan
      1 kunnankolon
      1 kuntigi
      1 kunun
      1 kuraya
      1 kurunkɔnɔmɔgɔ
      1 kus
      1 kuyate
      1 l
      1 laadikan
      1 laban
      1 labɔ
      1 ladegi
      1 lafɛn
      1 laganviyara
      1 lagbɛri
      1 lagbɛrikɛbaga
      1 lahara
      1 lakajan
      1 lakasi
      1 lakojuguya
      1 lakolon
      1 lalaga
      1 lalɔ
      1 lamɛn
      1 lanin
      1 lasiran
      1 lawurira
      1 layiridafabariya
      1 layiritabariya
      1 layɔrɔ
      1 lebu
      1 lɛnpo
      1 logisara
      1 lonan
      1 lonanya
      1 lɔfɛn
      1 lɔgɔfɛ
      1 lɔgɔkurun
      1 lɔgɔlamini
      1 lɔnin
      1 lɔri
      1 lɔyɔrɔ
      1 lukɛnɛ
      1 m
      1 maga
      1 makantaga
      1 mamamuso
      1 manamanacogo
      1 mankan
      1 manyumankokan
      1 marakadɔn
      1 marora
      1 masa
      1 masacɛ
      1 masɔrɔ
      1 mɛɛn
      1 mɛɛnna
      1 mɛɛnɲanakɔnɔnin
      1 mɛnna
      1 minabaga
      1 minana
      1 minbaga
      1 minlɔgɔ
      1 minlɔgɔnin
      1 minyɔrɔ
      1 misɛn
      1 misɛnya
      1 misiden
      1 misidennin
      1 misifin
      1 misikuru
      1 mori
      1 mɔ
      1 mɔbaga
      1 mɔfɛn
      1 mɔgɔba
      1 mɔgɔdarabɔsanji
      1 mɔgɔkɔrɔbakuma
      1 mɔgɔnafin
      1 mɔgɔsaba
      1 mɔgɔtigi
      1 mɔna
      1 mɔnin
      1 munyu
      1 munyuribaga
      1 murunin
      1 murusankokuma
      1 musokɔrɔnin
      1 musoya
      1 nafa
      1 nafako
      1 nafigi
      1 nakun
      1 nan
      1 nanbara
      1 nanbaraya
      1 nanforotigiya
      1 nankɔgɔ
      1 nataba
      1 n’bonbonsi
      1 n’donna
      1 nɛnkun
      1 nɛrɛbɔbaga
      1 n’golo
      1 nimisa
      1 n’jigi
      1 n’kɔnɔ
      1 n’na
      1 n’nyu
      1 nɔ
      1 nɔgɔ
      1 nɔgɔjugu
      1 nɔgɔya
      1 nɔnzitagama
      1 nɔɔni
      1 n’somɔgɔ
      1 n’sɔn
      1 numanboro
      1 numu
      1 numuntogo
      1 n’yɛrɛ
      1 ɲabɔ
      1 ɲadon
      1 ɲadonya
      1 ɲafɛn
      1 ɲafɔko
      1 ɲagamina
      1 ɲagaminna
      1 ɲaji
      1 ɲajitɔ
      1 ɲakiri
      1 ɲalɔn
      1 ɲama
      1 ɲamanfirisununkun
      1 ɲamisɛn
      1 ɲamɔgɔcɛ
      1 ɲamɔgɔden
      1 ɲanabɔ
      1 ɲanagbɛ
      1 ɲani
      1 ɲanibagatɔ
      1 ɲanikɛbaga
      1 ɲɛbɛrɛ
      1 ɲɛgɛn
      1 ɲɛgɛnɛ
      1 ɲinibaga
      1 ɲininka
      1 ɲininkari
      1 ɲininkarikɛbaga
      1 ɲɔbugu
      1 ɲɔdomukɔnɔ
      1 ɲɔgɔ
      1 ɲɔgɔmɛ
      1 ɲɔtu
      1 ɲumankɛtɔ
      1 ɲunan
      1 ŋanin
      1 ŋaninya
      1 ŋɔmi
      1 ŋuna
      1 ŋunuman
      1 olugu
      1 ɔn
      1 panna
      1 pɛrɛn
      1 sababu
      1 sabaga
      1 sabu
      1 safinaminan
      1 sagafaga
      1 sagajigi
      1 sago
      1 samafagamugu
      1 sandigi
      1 sanfinin
      1 sangafobaga
      1 sanin
      1 saninfugula
      1 sankurukan
      1 sanna
      1 sannin
      1 santuma
      1 saraka
      1 saraman
      1 sarati
      1 sariya
      1 saya
      1 seere
      1 seko
      1 sekɔtɔ
      1 senkalanin
      1 senkɔrɔta
      1 senkɔrɔyɔrɔ
      1 senna
      1 sensabatagama
      1 serilon
      1 sɛgɛrɛ
      1 sɛnɛkɛyɔrɔ
      1 sɛnɛnin
      1 sibankɔnɔ
      1 sibon
      1 sigikun
      1 siginan
      1 sigituma
      1 siko
      1 simanjugu
      1 sinamuso
      1 siɲanakɔnɔnin
      1 siɲanakun
      1 siradarakɔlɔn
      1 sirafaran
      1 sirakɔgɔma
      1 siralɔnbariya
      1 siraratagama
      1 siri
      1 sirifu
      1 sisɛba
      1 sisɛdenin
      1 sisɛnin
      1 sisi
      1 sisɔrɔ
      1 siyɛnta
      1 siyɛntabaga
      1 siyɔrɔsɔrɔ
      1 sobagirin
      1 sogi
      1 sogibagajugu
      1 sogoflagbɛn
      1 sogomuso
      1 sogotigi
      1 soku
      1 solikabɔ
      1 son
      1 sonsan
      1 sonya
      1 sonzan
      1 sonzani
      1 sosonin
      1 sɔbɛ
      1 sɔgɔ
      1 sɔgɔsɔgɔtɔ
      1 sɔrɔfɛn
      1 sɔrɔri
      1 sɔsɔ
      1 subaga
      1 subagaya
      1 sufɛkunli
      1 sufɛmisi
      1 suguya
      1 sukoro
      1 sulanin
      1 sumalon
      1 sunguruba
      1 sunɔgɔ
      1 sunɔgɔbagatɔ
      1 surugubo
      1 surugukasi
      1 surugulɔgɔ
      1 surunin
      1 surunya
      1 susu
      1 susurikan
      1 tabadagamin
      1 tagamabari
      1 tagamabere
      1 tagamacogo
      1 tagamatɔ
      1 tagamatuma
      1 tagatɔ
      1 tagayɔrɔjan
      1 tajuru
      1 takan
      1 takanɛnɛ
      1 talonyɔrɔ
      1 tana
      1 taran
      1 taranna
      1 tasumafiyɛ
      1 tasumatigi
      1 ten
      1 tenda
      1 terebɔ
      1 tericɛ
      1 tɛgɛcira
      1 tɛgɛkokonyuman
      1 tɛmɛn
      1 tɛmɛsira
      1 tɛrɛmɛna
      1 t’i
      1 tigawɔrɔ
      1 tigɛyɔrɔ
      1 tigintan
      1 tinba
      1 tiɲɛfɛn
      1 tisota
      1 togo
      1 tokalama
      1 tolen
      1 tonna
      1 tora
      1 tori
      1 torinin
      1 torira
      1 torogberen
      1 torotigɛ
      1 totasa
      1 totodinga
      1 tɔgɔjugu
      1 tɔgɔla
      1 tɔgɔɲini
      1 tɔn
      1 tɔnɔ
      1 tuba
      1 tugubaganci
      1 tugura
      1 tulo
      1 tunun
      1 turubara
      1 turujuru
      1 turuman
      1 turunin
      1 turura
      1 wagabɔn
      1 walama
      1 walifɛn
      1 waraba
      1 warasogo
      1 welenin
      1 wokɔnɔfɛn
      1 wolonfla
      1 woto
      1 wɔlɔni
      1 wɔlɔnin
      1 wɔɔrɔ
      1 wɔrɔ
      1 wɔrɔsɔ
      1 wɔsiji
      1 wula
      1 wulada
      1 wulenna
      1 wurifɛn
      1 wurituma
      1 wurudennin
      1 wurufa
      1 wurufaga
      1 wurujugu
      1 wurukinda
      1 wuruwele
      1 y’an
      1 yecogo
      1 yera
      1 yeri
      1 yɛlɛ
      1 yɛlɛlon
      1 yɛlɛmayɛlɛma
      1 yɛlɛnna
      1 yɛlɛyɛlɛ
      1 yɛrɛlɔn
      1 yɛrɛɲini
      1 y’i
      1 yirara
      1 yirimisɛn
      1 yirimɔgɔnin
      1 zaban
      1 zan
      2 a’
      2 baara
      2 balankan
      2 bana
      2 banabagatɔ
      2 be
      2 bin
      2 biɲɛ
      2 b’o
      2 bobo
      2 bɔn
      2 ca
      2 caya
      2 cibaga
      2 cɔ
      2 dabla
      2 degi
      2 dencɛ
      2 denmisɛnwuru
      2 dɛsɛra
      2 diminin
      2 dinga
      2 dira
      2 dondokɔrɔnin
      2 doni
      2 donsoya
      2 dɔgɔ
      2 dɔgɔya
      2 dɔnkɛ
      2 dɔrɔ
      2 dudunkan
      2 dugulen
      2 dugutigi
      2 fadencɛ
      2 fanga
      2 fangantan
      2 fani
      2 faninyatigɛbaga
      2 fara
      2 fatɔ
      2 fɛnjugu
      2 fifa
      2 fin
      2 firibaga
      2 fiyeere
      2 fo
      2 fɔbaga
      2 fɔɲɔ
      2 fɔra
      2 gbannin
      2 gbɛnbere
      2 gundo
      2 hɛra
      2 ja
      2 je
      2 jenbe
      2 jɛgɛjalanɲimin
      2 jogo
      2 jugunin
      2 juguya
      2 jula
      2 kama
      2 kaɲi
      2 kara
      2 karifa
      2 kasa
      2 kɛbaga
      2 kɛnɛbagatɔ
      2 kɛnɛya
      2 kɛrɛkɛcɛ
      2 kɛwale
      2 kin
      2 kinin
      2 kiri
      2 kogoro
      2 kongotaga
      2 kɔflɛ
      2 kɔngɔtɔ
      2 kɔnna
      2 kɔnɔgban
      2 kɔnɔntɔn
      2 kɔrɔfɔ
      2 kumalɔn
      2 kumu
      2 kumunin
      2 kungo
      2 kura
      2 kurunin
      2 lakari
      2 lamaga
      2 liden
      2 lɔnbaga
      2 mako
      2 malo
      2 mana
      2 miiri
      2 minan
      2 misi
      2 moriya
      2 musokɔrɔba
      2 nakan
      2 nana
      2 n’bɛ
      2 nɛgɛ
      2 nɛn
      2 n’fɔcogo
      2 n’ka
      2 n’kun
      2 n’ma
      2 ɲagari
      2 ɲanafin
      2 ɲanin
      2 ɲin
      2 ɲinan
      2 ɲinina
      2 ɲɔfiyɛbaga
      2 ŋunuma
      2 para
      2 sabari
      2 saran
      2 sebari
      2 sekɔ
      2 sennateriya
      2 sɛgɛ
      2 siginin
      2 sini
      2 siranbagatɔ
      2 siyɔrɔ
      2 sobɛ
      2 sonzanin
      2 sonzannin
      2 sɔgɔma
      2 sɔngɔ
      2 sunbara
      2 surun
      2 t
      2 teriya
      2 tɛna
      2 tigɛra
      2 toro
      2 tɔmɔbaga
      2 tu
      2 tuganin
      2 tugu
      2 wagati
      2 wara
      2 wari
      2 wolo
      2 woroden
      2 worora
      2 wulen
      2 wurira
      2 yan
      2 yiriboro
      2 yirikurun
      2 yirinin
      3 bala
      3 basi
      3 benna
      3 bere
      3 bi
      3 bilakoro
      3 bonbosi
      3 bonya
      3 borokanden
      3 bɔrɔ
      3 bugɔ
      3 cɛnin
      3 daga
      3 denmisɛn
      3 derege
      3 dɛgɛ
      3 dimi
      3 diyara
      3 dɔɔni
      3 fagantan
      3 falen
      3 fan
      3 fiyentɔya
      3 gbo
      3 gboya
      3 jalaki
      3 jeli
      3 jukɔrɔ
      3 kabini
      3 karanmɔgɔ
      3 karisa
      3 kolon
      3 kɔlɔn
      3 kɔnɔfɛn
      3 kɔnɔman
      3 kunu
      3 kuru
      3 kurusi
      3 lase
      3 lawuri
      3 lonancɛ
      3 lɔnnin
      3 misiri
      3 mɔgɔkɔrɔba
      3 mugu
      3 muru
      3 n’
      3 neni
      3 nɔnɔ
      3 senkan
      3 siran
      3 sɔgɔmada
      3 tɛmɛ
      3 tiga
      3 toron
      3 tɔri
      3 tuma
      3 turu
      3 wɔsi
      3 yaala
      3 yɛlɛma
      3 yɛrɛgɛ
      3 yɛrɛko
      3 yiriba
      3 yiriden
      4 bamuso
      4 bɛn
      4 bɛnna
      4 bon
      4 cɛkɔrɔba
      4 cɛn
      4 diman
      4 dɔwɛrɛ
      4 duga
      4 fagama
      4 fali
      4 fanin
      4 faninya
      4 fɔlɔ
      4 gbansan
      4 gbɛ
      4 gbɛra
      4 gbolo
      4 hakɛ
      4 jalayiri
      4 jo
      4 jɔ
      4 kala
      4 karan
      4 kari
      4 kasi
      4 kɛra
      4 kongo
      4 kosɔn
      4 kukala
      4 kunkolo
      4 nanji
      4 n’ta
      4 ɲanaman
      4 ɲini
      4 ɲuman
      4 sanji
      4 sara
      4 sera
      4 sin
      4 sisɛfan
      4 sogo
      4 sɔnkɔrɔ
      4 tan
      4 tere
      4 teri
      4 tiɲɛn
      4 tɔ
      4 wuri
      4 yira
      5 ani
      5 bakɔrɔnin
      5 banna
      5 basa
      5 dɔn
      5 faran
      5 juru
      5 k
      5 kɛlɛ
      5 li
      5 m’a
      5 naloman
      5 ɲina
      5 pan
      5 saba
      5 sani
      5 segi
      5 sira
      5 t’a
      5 tagara
      5 wɛrɛ
      5 woro
      6 banba
      6 facɛ
      6 foyi
      6 gban
      6 jigi
      6 kɛnɛ
      6 kɛrɛ
      6 kojugu
      6 kɔgɔ
      6 kɔnɔnin
      6 lɔ
      6 lɔgɔ
      6 mɔgɔya
      6 ɲana
      6 sisɛ
      6 sɔn
      6 tasuma
      6 tigi
      6 wa
      6 wele
      7 ale
      7 bori
      7 firi
      7 flɛ
      7 hakiri
      7 jan
      7 n’o
      7 ɲɔ
      7 tagama
      7 wuru
      7 y’a
      8 an
      8 caaman
      8 dɛ
      8 domu
      8 ele
      8 faga
      8 fana
      8 fiyentɔ
      8 jɛgɛ
      8 jugu
      8 kunna
      8 la
      8 n’tɛ
      8 sama
      8 san
      8 sigi
      8 sula
      8 yiri
      9 b
      9 ban
      9 ci
      9 muso
      9 ne
      9 suma
      9 tiɲɛ
      9 tɔgɔ
      9 tun
      9 tuun
      9 yi
     10 ba
     10 b’i
     10 bɔra
     10 jɛn
     10 kana
     10 mun
     11 cogo
     11 dunuɲa
     11 fisa
     11 kɔrɔ
     11 su
     11 yɔrɔ
     12 dan
     12 fa
     12 hali
     12 si
     12 tigɛ
     13 ben
     13 bɛna
     13 lon
     13 ɲi
     14 mina
     14 nin
     15 bla
     15 don
     15 taga
     16 diya
     17 so
     17 surugu
     18 dugu
     18 kun
     18 man
     18 mɛn
     18 sen
     19 ala
     19 boro
     19 kuma
     19 n
     19 ɲɔgɔn
     19 sa
     21 cɛ
     21 lo
     22 den
     22 yɛrɛ
     23 ji
     24 da
     24 fla
     27 kɔ
     29 di
     30 to
     32 kɔnɔ
     32 sɔrɔ
     33 fɛn
     34 ɲa
     37 fɛ
     40 bɔ
     40 kan
     40 n’a
     41 fɔ
     43 k’a
     43 se
     45 kelen
     48 lɔn
     49 dɔ
     56 b’a
     57 kɛ
     57 na
     63 bɛɛ
     74 nka
     86 n’i
     86 ta
     88 min
    102 ma
    106 ko
    115 le
    123 ni
    138 o
    144 mɔgɔ
    145 ra
    230 i
    246 a
    247 tɛ
    253 bɛ
    253 ka
    316 ye
